    Release 6.46.4 2020-02-27
    Release 6.46.3 2020-02-06
    Release 6.46.2 2020-01-16
    Release 6.46.1 2019-12-17
    Release 6.46 2019-12-03
    Release 6.45.7 2019-10-28
    Release 6.45.6 2019-09-11
    Release 6.45.5 2019-08-28
    Release 6.45.4 2019-08-28
    Release 6.45.3 2019-08-01
    Release 6.45.2 2019-07-19
    Release 6.45.1 2019-07-01
    Release 6.45 2019-07-01
    Release 6.44.4 2019-07-01
    Release 6.44.3 2019-04-24
    Release 6.44.2 2019-04-04
    Release 6.44.1 2019-03-14
    Release 6.44 2019-02-26
    Release 6.43.12 2019-02-11
    Release 6.43.11 2019-02-05
    Release 6.43.10 2019-02-05
    Release 6.43.9 2019-02-05
    Release 6.43.8 2018-12-21
    Release 6.43.7 2018-12-03
    Release 6.43.6 2018-12-03
    Release 6.43.5 2018-12-03
    Release 6.43.4 2018-10-18
    Release 6.43.3 2018-10-18
    Release 6.43.2 2018-09-20
    Release 6.43.1 2018-09-18
    Release 6.43 2018-09-10
    Release 6.42.7 2018-08-20
    Release 6.42.6 2018-07-12
    Release 6.42.5 2018-06-27
    Release 6.42.4 2018-06-19
    Release 6.42.3 2018-05-25
    Release 6.42.2 2018-05-17
    Release 6.42.1 2018-04-23
    Release 6.42 2018-04-20
    Release 6.41.4 2018-04-09
    Release 6.41.3 2018-03-12
    Release 6.41.2 2018-02-27
    Release 6.41.1 2018-02-02
    Release 6.41 2017-12-22
    Release 6.40.5 2017-11-07
    Release 6.40.4 2017-10-03
    Release 6.40.3 2017-09-01
    Release 6.40.2 2017-08-24
    Release 6.40.1 2017-08-04
    Release 6.40 2018-02-26
    Release 6.39.2 2017-06-06
    Release 6.39.1 2017-05-03
    Release 6.39 2017-04-28
    Release 6.38.5 2017-03-09
    Release 6.38.4 2017-03-08
    Release 6.38.3 2017-02-22
    Release 6.38.2 2017-02-22
    Release 6.38.1 2017-01-16
    Release 6.38 2017-01-02
    Release 6.37.3 2016-11-30
    Release 6.37.2 2016-11-21
    Release 6.37.1 2016-11-09
    Release 6.37 2016-09-23
    Release 6.36.3 2016-09-06
    Release 6.36.2 2016-08-24
    Release 6.36.1 2016-08-24
    Release 6.36 2016-07-21
    Release 6.35.4 2016-06-13
    Release 6.35.2 2016-05-06
    Release 6.35.1 2016-04-26
    Release 6.35 2016-04-15
    Release 6.34.4 2016-03-30
    Release 6.34.3 2016-03-11
    Release 6.34.2 2016-02-19
    Release 6.34.1 2016-02-04
    Release 6.34 2016-01-29
    Release 6.33.6 2016-01-29
    Release 6.33.5 2016-01-20
    Release 6.33.3 2015-12-04
    Release 6.33.2 2015-12-01
    Release 6.33.1 2015-11-19
    Release 6.33 2015-11-06
    Release 6.32.2 2015-09-21
    Release 6.32.1 2015-09-08
    Release 6.30 2015-07-08
    Release 6.29.1 2015-06-01
    Release 6.29 2015-05-28
    Release 6.28 2015-04-20
    Release 6.27 2015-02-23
    Release 6.26 2015-02-04
    Release 6.25 2015-01-19
    Release 6.24 2014-12-29
    Release 6.23 2014-12-05
    Release 6.22 2014-11-12
    Release 6.21.1 2014-11-03
    Release 6.20 2014-10-02
    Release 6.19 2014-08-27
    Release 6.18 2014-08-01
    Release 6.17 2014-07-18
    Release 6.16 2014-07-18
    Release 6.15 2014-06-12
    Release 6.14 2014-06-09
    Release 6.13 2014-05-16
    Release 6.12 2014-04-15
    Release 6.11 2014-03-21
    Release 6.10 2014-02-14
    Release 6.9 2014-01-31
    Release 6.7 2013-12-02
    Release 6.6 2013-11-08
    Release 6.5 2013-10-17
    Release 6.4 2013-09-12
    Release 6.3 2013-09-03
    Release 6.2 2013-08-02
    Release 6.1 2013-06-12
    Release 6.0 2013-05-20
    Release 5.25 2013-04-29
    Release 5.24 2013-02-20
    Release 5.23 2013-01-29
    Release 5.22 2012-11-23
    Release 5.21 2012-10-13
    Release 5.20 2012-08-15
    Release 5.19 2012-07-18
    Release 5.18 2012-06-22
    Release 5.17 2012-05-30
    Release 5.16 2012-05-10
    Release 5.14 2012-02-23
    Release 5.13 2012-02-14
    Release 5.12 2012-02-14
    Release 5.11 2011-12-12
    Release 5.9 2011-11-29
    Release 5.8 2011-11-29
    Release 5.7 2011-10-18
    Release 4.17 2011-10-17
    Release 4.10 2011-10-07

